module gitlab.com/lightnet1/evrynet-node

go 1.12

require (
	github.com/Workiva/go-datastructures v1.0.50
	github.com/allegro/bigcache v1.2.1
	github.com/apilayer/freegeoip v3.5.0+incompatible
	github.com/aristanetworks/goarista v0.0.0-20190712234253-ed1100a1c015
	github.com/btcsuite/btcd v0.20.0-beta
	github.com/cespare/cp v1.1.1
	github.com/davecgh/go-spew v1.1.1
	github.com/deckarep/golang-set v1.7.1
	github.com/docker/docker v1.13.1
	github.com/edsrzf/mmap-go v1.0.0
	github.com/elastic/gosigar v0.10.4
	github.com/enriquebris/goconcurrentqueue v0.0.0-20190719205347-3e5689c24f05
	github.com/fatih/color v1.7.0
	github.com/fjl/memsize v0.0.0-20190710130421-bcb5799ab5e5
	github.com/gballet/go-libpcsclite v0.0.0-20190607065134-2772fd86a8ff
	github.com/go-stack/stack v1.8.0
	github.com/golang/protobuf v1.3.2
	github.com/golang/snappy v0.0.2-0.20200707131729-196ae77b8a26
	github.com/graph-gophers/graphql-go v0.0.0-20191115155744-f33e81362277
	github.com/hashicorp/golang-lru v0.5.4
	github.com/howeyc/fsnotify v0.9.0 // indirect
	github.com/huin/goupnp v1.0.0
	github.com/influxdata/influxdb v1.7.7
	github.com/jackpal/go-nat-pmp v1.0.2-0.20160603034137-1fa385a6f458
	github.com/julienschmidt/httprouter v1.2.0
	github.com/karalabe/usb v0.0.0-20190919080040-51dc0efba356
	github.com/kr/pretty v0.2.0 // indirect
	github.com/kylelemons/godebug v1.1.0 // indirect
	github.com/mattn/go-colorable v0.1.2
	github.com/mattn/go-isatty v0.0.9
	github.com/mattn/go-runewidth v0.0.4 // indirect
	github.com/mohae/deepcopy v0.0.0-20170929034955-c48cc78d4826
	github.com/naoina/go-stringutil v0.1.0 // indirect
	github.com/naoina/toml v0.1.2-0.20170918210437-9fafd6967416
	github.com/olekukonko/tablewriter v0.0.2-0.20190409134802-7e037d187b0c
	github.com/oschwald/maxminddb-golang v1.6.0 // indirect
	github.com/pborman/uuid v1.2.0
	github.com/peterh/liner v1.1.1-0.20190123174540-a2c9a5303de7
	github.com/pkg/errors v0.9.1
	github.com/prometheus/tsdb v0.10.0
	github.com/rjeczalik/notify v0.9.2
	github.com/robertkrimen/otto v0.0.0-20180617131154-15f95af6e78d
	github.com/rs/cors v1.7.0
	github.com/status-im/keycard-go v0.0.0-20190424133014-d95853db0f48
	github.com/steakknife/bloomfilter v0.0.0-20180922174646-6819c0d2a570
	github.com/steakknife/hamming v0.0.0-20180906055917-c99c65617cd3 // indirect
	github.com/stretchr/testify v1.4.0
	github.com/syndtr/goleveldb v1.0.1-0.20190923125748-758128399b1d
	github.com/tidwall/gjson v1.6.0
	github.com/tyler-smith/go-bip39 v1.0.2
	github.com/urfave/cli v1.22.1
	github.com/wsddn/go-ecdh v0.0.0-20161211032359-48726bab9208
	go.uber.org/multierr v1.5.0 // indirect
	go.uber.org/zap v1.11.0
	golang.org/x/crypto v0.0.0-20200622213623-75b288015ac9
	golang.org/x/net v0.0.0-20200625001655-4c5254603344
	golang.org/x/sync v0.0.0-20190911185100-cd5d95a43a6e
	golang.org/x/sys v0.0.0-20200323222414-85ca7c5b95cd
	golang.org/x/text v0.3.2
	gopkg.in/check.v1 v1.0.0-20180628173108-788fd7840127
	gopkg.in/natefinch/npipe.v2 v2.0.0-20160621034901-c1b8fa8bdcce
	gopkg.in/olebedev/go-duktape.v3 v3.0.0-20200619000410-60c24ae608a6
	gopkg.in/sourcemap.v1 v1.0.5 // indirect
)
